[
  {
    "model": "spc.Messenger",
    "pk": 1,
    "fields": {
      "name": "WhatsApp",
      "icon": "messenger_icons/WhatsApp.png"
    }
  },
  {
    "model": "spc.Messenger",
    "pk": 2,
    "fields": {
      "name": "Facebook Messenger",
      "icon": "messenger_icons/fb-messenger.png"
    }
  },
  {
    "model": "spc.Messenger",
    "pk": 3,
    "fields": {
      "name": "Telegram",
      "icon": "messenger_icons/Telegram_logo.png"
    }
  },
  {
    "model": "spc.Messenger",
    "pk": 4,
    "fields": {
      "name": "Signal",
      "icon": "messenger_icons/Signal.png"
    }
  },
  {
    "model": "spc.Messenger",
    "pk": 5,
    "fields": {
      "name": "WeChat",
      "icon": "messenger_icons/wechat.png"
    }
  },
  {
    "model": "spc.Messenger",
    "pk": 6,
    "fields": {
      "name": "KakaoTalk",
      "icon": "messenger_icons/KakaoTalk_logo.svg"
    }
  },
  {
    "model": "spc.Messenger",
    "pk": 7,
    "fields": {
      "name": "Threema",
      "icon": "messenger_icons/Threema.png"
    }
  }
]