<svg xmlns="http://www.w3.org/2000/svg" width="24" height="24" viewBox="0 0 24 24" fill="none"
     stroke="currentColor" stroke-width="2" stroke-linecap="round" stroke-linejoin="round"
     class="feather feather-clipboard">
    <path d="M16 4h2a2 2 0 0 1 2 2v14a2 2 0 0 1-2 2H6a2 2 0 0 1-2-2V6a2 2 0 0 1 2-2h2"></path>
    <rect x="8" y="2" width="8" height="4" rx="1" ry="1"></rect>
    <line x1="7.4" y1="10" x2="7.4" y2="10" stroke-width="1.5"></line>
    <line x1="11" y1="10" x2="16" y2="10" stroke-width="1.5"></line>
    <line x1="7.4" y1="13" x2="7.4" y2="13" stroke-width="1.5"></line>
    <line x1="11" y1="13" x2="16" y2="13" stroke-width="1.5"></line>
    <line x1="7.4" y1="16" x2="7.4" y2="16" stroke-width="1.5"></line>
    <line x1="11" y1="16" x2="16" y2="16" stroke-width="1.5"></line>
    <rect x="8" y="2" width="8" height="4" rx="1" ry="1"></rect></svg>